+---+---+---++---+---+---++---+---+---+
|   | 2 | 1 ||   |   | 9 ||   |   | 3 |
+---+---+---++---+---+---++---+---+---+
|   |   |   || 7 | 8 |   || 2 | 6 |   |
+---+---+---++---+---+---++---+---+---+
| 3 |   |   ||   |   |   || 7 |   |   |
+---+---+---++---+---+---++---+---+---+
+---+---+---++---+---+---++---+---+---+
|   | 9 |   ||   |   |   || 3 | 1 |   |
+---+---+---++---+---+---++---+---+---+
|   |   | 5 ||   |   | 3 ||   | 4 |   |
+---+---+---++---+---+---++---+---+---+
|   |   |   || 8 |   |   ||   |   |   |
+---+---+---++---+---+---++---+---+---+
+---+---+---++---+---+---++---+---+---+
|   |   | 3 ||   |   | 4 ||   | 8 |   |
+---+---+---++---+---+---++---+---+---+
|   |   |   || 5 |   |   || 6 |   |   |
+---+---+---++---+---+---++---+---+---+
|   |   |   || 6 |   |   ||   |   | 7 |
+---+---+---++---+---+---++---+---+---+
