+---+---+---++---+---+---++---+---+---+
|   |   | 7 || 4 | 6 |   || 2 |   |   |
+---+---+---++---+---+---++---+---+---+
|   | 3 |   ||   |   |   || 4 |   |   |
+---+---+---++---+---+---++---+---+---+
|   | 9 |   || 5 |   |   || 6 |   |   |
+---+---+---++---+---+---++---+---+---+
+---+---+---++---+---+---++---+---+---+
| 2 |   |   || 1 |   |   || 5 |   |   |
+---+---+---++---+---+---++---+---+---+
|   |   |   ||   |   |   ||   |   |   |
+---+---+---++---+---+---++---+---+---+
|   | 7 |   || 6 |   |   ||   | 9 |   |
+---+---+---++---+---+---++---+---+---+
+---+---+---++---+---+---++---+---+---+
|   |   | 3 ||   |   | 1 ||   | 5 |   |
+---+---+---++---+---+---++---+---+---+
|   | 1 |   || 7 |   |   ||   | 8 |   |
+---+---+---++---+---+---++---+---+---+
|   |   |   ||   | 3 | 4 ||   |   |   |
+---+---+---++---+---+---++---+---+---+
