+---+---+---++---+---+---++---+---+---+
|   |   |   ||   |   |   || 4 |   |   |
+---+---+---++---+---+---++---+---+---+
|   | 9 |   ||   |   |   ||   |   | 2 |
+---+---+---++---+---+---++---+---+---+
|   |   | 1 || 8 |   | 6 ||   | 7 |   |
+---+---+---++---+---+---++---+---+---+
+---+---+---++---+---+---++---+---+---+
|   | 7 |   ||   | 3 |   ||   |   |   |
+---+---+---++---+---+---++---+---+---+
| 1 |   | 6 ||   |   | 8 ||   |   |   |
+---+---+---++---+---+---++---+---+---+
| 3 |   |   || 4 |   |   ||   |   |   |
+---+---+---++---+---+---++---+---+---+
+---+---+---++---+---+---++---+---+---+
|   | 2 |   ||   |   |   ||   |   | 4 |
+---+---+---++---+---+---++---+---+---+
|   |   |   ||   |   |   ||   | 8 |   |
+---+---+---++---+---+---++---+---+---+
| 7 | 8 |   ||   |   | 3 || 5 | 6 |   |
+---+---+---++---+---+---++---+---+---+
